{
	"version": 1,
	"tileTypes": {
		"0": "tileGroup"
	},
	"layers": [
		{
			"id": 0,
			"tiles": [
				{
					"type": 0,
					"data": "BQAAAAUAAAAFAAAABQAAAAZxQmxvY2sIAAAAAAAAAAAAAAA="
				}
			]
		}
	]
}