# 3ds Max Wavefront OBJ Exporter v0.97b - (c)2007 guruware
# File Created: 17.03.2019 20:02:32

mtllib Level/QBlock.mtl

#
# object QBlock
#

v  0.0682 0.0000 -0.0909
v  0.0682 0.0000 -0.2727
v  0.9318 0.0000 -0.2727
v  0.9318 0.0000 -0.0909
v  0.0682 1.0000 -0.0909
v  0.9318 1.0000 -0.0909
v  0.9318 1.0000 -0.2727
v  0.0682 1.0000 -0.2727
v  0.1591 0.0909 -0.0000
v  0.8409 0.0909 -0.0000
v  0.8569 0.0920 -0.0000
v  0.8707 0.0952 -0.0000
v  0.8825 0.1005 -0.0000
v  0.8920 0.1080 -0.0000
v  0.8995 0.1175 -0.0000
v  0.9048 0.1293 -0.0000
v  0.9080 0.1431 -0.0000
v  0.9091 0.1591 -0.0000
v  0.9091 0.8409 -0.0000
v  0.9080 0.8569 -0.0000
v  0.9048 0.8707 -0.0000
v  0.8995 0.8825 -0.0000
v  0.8920 0.8920 -0.0000
v  0.8825 0.8995 -0.0000
v  0.8707 0.9048 -0.0000
v  0.8569 0.9080 -0.0000
v  0.8409 0.9091 -0.0000
v  0.1591 0.9091 -0.0000
v  0.1431 0.9080 -0.0000
v  0.1293 0.9048 -0.0000
v  0.1175 0.8995 -0.0000
v  0.1080 0.8920 -0.0000
v  0.1005 0.8825 -0.0000
v  0.0952 0.8707 -0.0000
v  0.0920 0.8569 -0.0000
v  0.0909 0.8409 -0.0000
v  0.1431 0.0920 -0.0000
v  0.1293 0.0952 -0.0000
v  0.1175 0.1005 -0.0000
v  0.1080 0.1080 -0.0000
v  0.1005 0.1175 -0.0000
v  0.0952 0.1293 -0.0000
v  0.0920 0.1431 -0.0000
v  0.0909 0.1591 -0.0000
v  1.0000 0.0682 -0.0909
v  1.0000 0.0682 -0.2727
v  1.0000 0.9318 -0.2727
v  1.0000 0.9318 -0.0909
v  0.0522 0.0011 -0.2727
v  0.0384 0.0043 -0.2727
v  0.0266 0.0096 -0.2727
v  0.0170 0.0170 -0.2727
v  0.0096 0.0266 -0.2727
v  0.0043 0.0384 -0.2727
v  0.0011 0.0522 -0.2727
v  0.0000 0.0682 -0.2727
v  0.0000 0.9318 -0.2727
v  0.0011 0.9478 -0.2727
v  0.0043 0.9616 -0.2727
v  0.0096 0.9734 -0.2727
v  0.0170 0.9830 -0.2727
v  0.0266 0.9904 -0.2727
v  0.0384 0.9957 -0.2727
v  0.0522 0.9989 -0.2727
v  0.9478 0.9989 -0.2727
v  0.9616 0.9957 -0.2727
v  0.9734 0.9904 -0.2727
v  0.9830 0.9830 -0.2727
v  0.9904 0.9734 -0.2727
v  0.9957 0.9616 -0.2727
v  0.9989 0.9478 -0.2727
v  0.9478 0.0011 -0.2727
v  0.9616 0.0043 -0.2727
v  0.9734 0.0096 -0.2727
v  0.9830 0.0170 -0.2727
v  0.9904 0.0266 -0.2727
v  0.9957 0.0384 -0.2727
v  0.9989 0.0522 -0.2727
v  0.0000 0.0682 -0.0909
v  0.0000 0.9318 -0.0909
v  0.0522 0.0011 -0.0909
v  0.9478 0.0011 -0.0909
v  0.9478 0.9989 -0.0909
v  0.0522 0.9989 -0.0909
v  0.0011 0.0522 -0.0909
v  0.9989 0.0522 -0.0909
v  0.0384 0.0043 -0.0909
v  0.0266 0.0096 -0.0909
v  0.0170 0.0170 -0.0909
v  0.0096 0.0266 -0.0909
v  0.0043 0.0384 -0.0909
v  0.9616 0.0043 -0.0909
v  0.9734 0.0096 -0.0909
v  0.9830 0.0170 -0.0909
v  0.9904 0.0266 -0.0909
v  0.9957 0.0384 -0.0909
v  0.9616 0.9957 -0.0909
v  0.9734 0.9904 -0.0909
v  0.9830 0.9830 -0.0909
v  0.9904 0.9734 -0.0909
v  0.9957 0.9616 -0.0909
v  0.9989 0.9478 -0.0909
v  0.0384 0.9957 -0.0909
v  0.0266 0.9904 -0.0909
v  0.0170 0.9830 -0.0909
v  0.0096 0.9734 -0.0909
v  0.0043 0.9616 -0.0909
v  0.0011 0.9478 -0.0909
# 108 vertices

vn 0.0000 -1.0000 -0.0000
vn 0.0000 1.0000 -0.0000
vn 0.0000 0.0000 1.0000
vn 1.0000 0.0000 -0.0000
vn 0.0000 0.0000 -1.0000
vn -1.0000 0.0000 -0.0000
vn 0.0000 -0.7071 0.7071
vn 0.0000 0.7071 0.7071
vn 0.7071 0.0000 0.7071
vn -0.7071 0.0000 0.7071
vn -0.0665 -0.9978 -0.0000
vn 0.0665 -0.9978 -0.0000
vn 0.0665 0.9978 -0.0000
vn -0.0665 0.9978 -0.0000
vn -0.6832 -0.0455 0.7288
vn 0.6832 -0.0455 0.7288
vn -0.0455 0.6832 0.7288
vn 0.0455 0.6832 0.7288
vn -0.2249 -0.9744 -0.0000
vn -0.4138 -0.9104 -0.0000
vn -0.6139 -0.7894 -0.0000
vn -0.7894 -0.6139 -0.0000
vn -0.9104 -0.4138 -0.0000
vn -0.9744 -0.2249 -0.0000
vn -0.9978 -0.0665 -0.0000
vn 0.2249 -0.9744 -0.0000
vn 0.4138 -0.9104 -0.0000
vn 0.6139 -0.7894 -0.0000
vn 0.7894 -0.6139 -0.0000
vn 0.9104 -0.4138 -0.0000
vn 0.9744 -0.2249 -0.0000
vn 0.9978 -0.0665 -0.0000
vn 0.2249 0.9744 -0.0000
vn 0.4138 0.9104 -0.0000
vn 0.6139 0.7894 -0.0000
vn 0.7894 0.6139 -0.0000
vn 0.9104 0.4138 -0.0000
vn 0.9744 0.2249 -0.0000
vn 0.9978 0.0665 -0.0000
vn -0.2249 0.9744 -0.0000
vn -0.4138 0.9104 -0.0000
vn -0.6139 0.7894 -0.0000
vn -0.7894 0.6139 -0.0000
vn -0.9104 0.4138 -0.0000
vn -0.9744 0.2249 -0.0000
vn -0.9978 0.0665 -0.0000
vn -0.6240 -0.1440 0.7680
vn -0.5486 -0.2494 0.7980
vn -0.4581 -0.3563 0.8144
vn -0.3563 -0.4581 0.8144
vn -0.2494 -0.5486 0.7980
vn -0.1440 -0.6240 0.7680
vn -0.0455 -0.6832 0.7288
vn 0.6240 -0.1440 0.7680
vn 0.5486 -0.2494 0.7980
vn 0.4581 -0.3563 0.8144
vn 0.3563 -0.4581 0.8144
vn 0.2494 -0.5486 0.7980
vn 0.1440 -0.6240 0.7680
vn 0.0455 -0.6832 0.7288
vn -0.1440 0.6240 0.7680
vn -0.2494 0.5486 0.7980
vn -0.3563 0.4581 0.8144
vn -0.4581 0.3563 0.8144
vn -0.5486 0.2494 0.7980
vn -0.6240 0.1440 0.7680
vn -0.6832 0.0455 0.7288
vn -0.6832 0.0456 0.7288
vn 0.1440 0.6240 0.7680
vn 0.2494 0.5486 0.7980
vn 0.3563 0.4581 0.8144
vn 0.4581 0.3563 0.8144
vn 0.5486 0.2494 0.7980
vn 0.6240 0.1440 0.7680
vn 0.6832 0.0455 0.7288
# 75 vertex normals

vt 0.1934 0.1554 0.0000
vt 0.1934 0.0009 0.0000
vt 0.8071 0.0009 0.0000
vt 0.8071 0.1554 0.0000
vt 0.1939 0.8449 0.0000
vt 0.8068 0.8449 0.0000
vt 0.8068 0.9994 0.0000
vt 0.1939 0.9994 0.0000
vt 0.2169 0.1584 0.0000
vt 0.7881 0.1584 0.0000
vt 0.8014 0.1593 0.0000
vt 0.8130 0.1620 0.0000
vt 0.8229 0.1664 0.0000
vt 0.8309 0.1727 0.0000
vt 0.8371 0.1807 0.0000
vt 0.8416 0.1905 0.0000
vt 0.8443 0.2021 0.0000
vt 0.8452 0.2155 0.0000
vt 0.8452 0.7867 0.0000
vt 0.8443 0.8000 0.0000
vt 0.8416 0.8116 0.0000
vt 0.8371 0.8215 0.0000
vt 0.8309 0.8295 0.0000
vt 0.8229 0.8357 0.0000
vt 0.8130 0.8402 0.0000
vt 0.8014 0.8429 0.0000
vt 0.7881 0.8438 0.0000
vt 0.2169 0.8438 0.0000
vt 0.2035 0.8429 0.0000
vt 0.1919 0.8402 0.0000
vt 0.1821 0.8357 0.0000
vt 0.1741 0.8295 0.0000
vt 0.1678 0.8215 0.0000
vt 0.1634 0.8116 0.0000
vt 0.1607 0.8000 0.0000
vt 0.1598 0.7867 0.0000
vt 0.2035 0.1593 0.0000
vt 0.1919 0.1620 0.0000
vt 0.1821 0.1664 0.0000
vt 0.1741 0.1727 0.0000
vt 0.1678 0.1807 0.0000
vt 0.1634 0.1905 0.0000
vt 0.1607 0.2021 0.0000
vt 0.1598 0.2155 0.0000
vt 0.8974 0.1952 0.0000
vt 0.9985 0.1952 0.0000
vt 0.9985 0.8060 0.0000
vt 0.8974 0.8060 0.0000
vt 0.2048 0.1555 0.0000
vt 0.8008 0.1555 0.0000
vt 0.8118 0.1562 0.0000
vt 0.8214 0.1584 0.0000
vt 0.8295 0.1621 0.0000
vt 0.8361 0.1672 0.0000
vt 0.8412 0.1738 0.0000
vt 0.8449 0.1818 0.0000
vt 0.8471 0.1914 0.0000
vt 0.8479 0.2024 0.0000
vt 0.8479 0.7964 0.0000
vt 0.8471 0.8074 0.0000
vt 0.8449 0.8170 0.0000
vt 0.8412 0.8250 0.0000
vt 0.8361 0.8316 0.0000
vt 0.8295 0.8367 0.0000
vt 0.8214 0.8404 0.0000
vt 0.8118 0.8426 0.0000
vt 0.8008 0.8433 0.0000
vt 0.2048 0.8433 0.0000
vt 0.1938 0.8426 0.0000
vt 0.1842 0.8404 0.0000
vt 0.1761 0.8367 0.0000
vt 0.1695 0.8316 0.0000
vt 0.1644 0.8250 0.0000
vt 0.1607 0.8170 0.0000
vt 0.1585 0.8074 0.0000
vt 0.1578 0.7964 0.0000
vt 0.1938 0.1562 0.0000
vt 0.1842 0.1584 0.0000
vt 0.1761 0.1621 0.0000
vt 0.1695 0.1672 0.0000
vt 0.1644 0.1738 0.0000
vt 0.1607 0.1818 0.0000
vt 0.1585 0.1914 0.0000
vt 0.1578 0.2024 0.0000
vt 0.0019 0.1937 0.0000
vt 0.1044 0.1937 0.0000
vt 0.1045 0.8073 0.0000
vt 0.0019 0.8073 0.0000
vt 0.8400 -0.0006 0.0000
vt 0.7681 0.1584 0.0000
vt 0.2283 0.1584 0.0000
vt 0.1563 -0.0006 0.0000
vt 0.1580 0.9959 0.0000
vt 0.2303 0.8438 0.0000
vt 0.7729 0.8438 0.0000
vt 0.8452 0.9959 0.0000
vt 0.8469 0.2595 0.0000
vt 0.8469 0.7417 0.0000
vt 0.1557 0.7427 0.0000
vt 0.1557 0.2583 0.0000
vt 0.1820 0.0009 0.0000
vt 0.1820 0.1554 0.0000
vt 0.8185 0.1554 0.0000
vt 0.8185 0.0009 0.0000
vt 0.8181 0.9994 0.0000
vt 0.8181 0.8449 0.0000
vt 0.1825 0.8449 0.0000
vt 0.1825 0.9994 0.0000
vt 0.0909 0.1419 0.0000
vt 0.0899 0.1573 0.0000
vt 0.0020 0.0694 0.0000
vt 0.0030 0.0539 0.0000
vt 0.9966 0.0532 0.0000
vt 0.9976 0.0685 0.0000
vt 0.9108 0.1553 0.0000
vt 0.9098 0.1400 0.0000
vt 0.1413 0.9095 0.0000
vt 0.1569 0.9105 0.0000
vt 0.0684 0.9990 0.0000
vt 0.0528 0.9980 0.0000
vt 0.9474 0.9970 0.0000
vt 0.9321 0.9980 0.0000
vt 0.8447 0.9107 0.0000
vt 0.8601 0.9096 0.0000
vt 0.1722 0.0009 0.0000
vt 0.1722 0.1554 0.0000
vt 0.1639 0.0009 0.0000
vt 0.1639 0.1554 0.0000
vt 0.1570 0.0009 0.0000
vt 0.1570 0.1554 0.0000
vt 0.0019 0.1641 0.0000
vt 0.0019 0.1573 0.0000
vt 0.1044 0.1573 0.0000
vt 0.1044 0.1641 0.0000
vt 0.0019 0.1725 0.0000
vt 0.1044 0.1725 0.0000
vt 0.0019 0.1823 0.0000
vt 0.1044 0.1823 0.0000
vt 0.8283 0.1554 0.0000
vt 0.8283 0.0009 0.0000
vt 0.8367 0.1554 0.0000
vt 0.8367 0.0009 0.0000
vt 0.8435 0.1554 0.0000
vt 0.8435 0.0009 0.0000
vt 0.8974 0.1658 0.0000
vt 0.8974 0.1590 0.0000
vt 0.9985 0.1590 0.0000
vt 0.9985 0.1658 0.0000
vt 0.8974 0.1741 0.0000
vt 0.9985 0.1741 0.0000
vt 0.8974 0.1839 0.0000
vt 0.9985 0.1839 0.0000
vt 0.8280 0.9994 0.0000
vt 0.8280 0.8449 0.0000
vt 0.8363 0.9994 0.0000
vt 0.8363 0.8449 0.0000
vt 0.8431 0.9994 0.0000
vt 0.8431 0.8449 0.0000
vt 0.9985 0.8354 0.0000
vt 0.9985 0.8422 0.0000
vt 0.8974 0.8422 0.0000
vt 0.8974 0.8354 0.0000
vt 0.9985 0.8271 0.0000
vt 0.8974 0.8271 0.0000
vt 0.9985 0.8173 0.0000
vt 0.8974 0.8173 0.0000
vt 0.1727 0.8449 0.0000
vt 0.1727 0.9994 0.0000
vt 0.1644 0.8449 0.0000
vt 0.1644 0.9994 0.0000
vt 0.1576 0.8449 0.0000
vt 0.1576 0.9994 0.0000
vt 0.1045 0.8369 0.0000
vt 0.1045 0.8437 0.0000
vt 0.0019 0.8437 0.0000
vt 0.0019 0.8369 0.0000
vt 0.1045 0.8285 0.0000
vt 0.0019 0.8285 0.0000
vt 0.1045 0.8187 0.0000
vt 0.0019 0.8187 0.0000
vt 0.0940 0.1285 0.0000
vt 0.0061 0.0405 0.0000
vt 0.0992 0.1171 0.0000
vt 0.0112 0.0292 0.0000
vt 0.1064 0.1078 0.0000
vt 0.0185 0.0199 0.0000
vt 0.1157 0.1006 0.0000
vt 0.0277 0.0127 0.0000
vt 0.1270 0.0955 0.0000
vt 0.0391 0.0075 0.0000
vt 0.1404 0.0924 0.0000
vt 0.0525 0.0044 0.0000
vt 0.1559 0.0914 0.0000
vt 0.0679 0.0034 0.0000
vt 0.9935 0.0400 0.0000
vt 0.9067 0.1268 0.0000
vt 0.9884 0.0288 0.0000
vt 0.9017 0.1156 0.0000
vt 0.9813 0.0197 0.0000
vt 0.8945 0.1065 0.0000
vt 0.9722 0.0126 0.0000
vt 0.8854 0.0993 0.0000
vt 0.9610 0.0075 0.0000
vt 0.8742 0.0943 0.0000
vt 0.9478 0.0044 0.0000
vt 0.8610 0.0912 0.0000
vt 0.9325 0.0034 0.0000
vt 0.8457 0.0902 0.0000
vt 0.1279 0.9064 0.0000
vt 0.0393 0.9949 0.0000
vt 0.1164 0.9012 0.0000
vt 0.0279 0.9897 0.0000
vt 0.1071 0.8939 0.0000
vt 0.0186 0.9824 0.0000
vt 0.0998 0.8846 0.0000
vt 0.0113 0.9731 0.0000
vt 0.0946 0.8732 0.0000
vt 0.0061 0.9617 0.0000
vt 0.0915 0.8597 0.0000
vt 0.0030 0.9482 0.0000
vt 0.0905 0.8441 0.0000
vt 0.0020 0.9326 0.0000
vt 0.9607 0.9939 0.0000
vt 0.8734 0.9066 0.0000
vt 0.9720 0.9888 0.0000
vt 0.8846 0.9014 0.0000
vt 0.9812 0.9816 0.0000
vt 0.8938 0.8943 0.0000
vt 0.9884 0.9724 0.0000
vt 0.9010 0.8851 0.0000
vt 0.9935 0.9612 0.0000
vt 0.9061 0.8738 0.0000
vt 0.9966 0.9479 0.0000
vt 0.9092 0.8605 0.0000
vt 0.9976 0.9325 0.0000
vt 0.9102 0.8451 0.0000
# 236 texture coords

g QBlock
usemtl QBlock
s off
f 1/1/1 2/2/1 3/3/1 
f 3/3/1 4/4/1 1/1/1 
f 5/5/2 6/6/2 7/7/2 
f 7/7/2 8/8/2 5/5/2 
f 9/9/3 10/10/3 11/11/3 
f 9/9/3 11/11/3 12/12/3 
f 9/9/3 12/12/3 13/13/3 
f 9/9/3 13/13/3 14/14/3 
f 9/9/3 14/14/3 15/15/3 
f 9/9/3 15/15/3 16/16/3 
f 9/9/3 16/16/3 17/17/3 
f 9/9/3 17/17/3 18/18/3 
f 18/18/3 19/19/3 20/20/3 
f 18/18/3 20/20/3 21/21/3 
f 18/18/3 21/21/3 22/22/3 
f 18/18/3 22/22/3 23/23/3 
f 18/18/3 23/23/3 24/24/3 
f 18/18/3 24/24/3 25/25/3 
f 18/18/3 25/25/3 26/26/3 
f 18/18/3 26/26/3 27/27/3 
f 9/9/3 18/18/3 27/27/3 
f 27/27/3 28/28/3 29/29/3 
f 27/27/3 29/29/3 30/30/3 
f 27/27/3 30/30/3 31/31/3 
f 27/27/3 31/31/3 32/32/3 
f 27/27/3 32/32/3 33/33/3 
f 27/27/3 33/33/3 34/34/3 
f 27/27/3 34/34/3 35/35/3 
f 27/27/3 35/35/3 36/36/3 
f 9/9/3 27/27/3 36/36/3 
f 37/37/3 9/9/3 36/36/3 
f 38/38/3 37/37/3 36/36/3 
f 39/39/3 38/38/3 36/36/3 
f 40/40/3 39/39/3 36/36/3 
f 41/41/3 40/40/3 36/36/3 
f 42/42/3 41/41/3 36/36/3 
f 43/43/3 42/42/3 36/36/3 
f 44/44/3 43/43/3 36/36/3 
f 45/45/4 46/46/4 47/47/4 
f 47/47/4 48/48/4 45/45/4 
f 3/49/5 2/50/5 49/51/5 
f 3/49/5 49/51/5 50/52/5 
f 3/49/5 50/52/5 51/53/5 
f 3/49/5 51/53/5 52/54/5 
f 3/49/5 52/54/5 53/55/5 
f 3/49/5 53/55/5 54/56/5 
f 3/49/5 54/56/5 55/57/5 
f 3/49/5 55/57/5 56/58/5 
f 56/58/5 57/59/5 58/60/5 
f 56/58/5 58/60/5 59/61/5 
f 56/58/5 59/61/5 60/62/5 
f 56/58/5 60/62/5 61/63/5 
f 56/58/5 61/63/5 62/64/5 
f 56/58/5 62/64/5 63/65/5 
f 56/58/5 63/65/5 64/66/5 
f 56/58/5 64/66/5 8/67/5 
f 3/49/5 56/58/5 8/67/5 
f 8/67/5 7/68/5 65/69/5 
f 8/67/5 65/69/5 66/70/5 
f 8/67/5 66/70/5 67/71/5 
f 8/67/5 67/71/5 68/72/5 
f 8/67/5 68/72/5 69/73/5 
f 8/67/5 69/73/5 70/74/5 
f 8/67/5 70/74/5 71/75/5 
f 8/67/5 71/75/5 47/76/5 
f 3/49/5 8/67/5 47/76/5 
f 72/77/5 3/49/5 47/76/5 
f 73/78/5 72/77/5 47/76/5 
f 74/79/5 73/78/5 47/76/5 
f 75/80/5 74/79/5 47/76/5 
f 76/81/5 75/80/5 47/76/5 
f 77/82/5 76/81/5 47/76/5 
f 78/83/5 77/82/5 47/76/5 
f 46/84/5 78/83/5 47/76/5 
f 56/85/6 79/86/6 80/87/6 
f 80/87/6 57/88/6 56/85/6 
f 4/89/7 10/90/7 9/91/7 
f 9/91/7 1/92/7 4/89/7 
f 5/93/8 28/94/8 27/95/8 
f 27/95/8 6/96/8 5/93/8 
f 18/97/9 45/45/9 48/48/9 
f 48/48/9 19/98/9 18/97/9 
f 36/99/10 80/87/10 79/86/10 
f 79/86/10 44/100/10 36/99/10 
f 49/101/11 2/2/11 1/1/11 
f 1/1/11 81/102/11 49/101/11 
f 82/103/12 4/4/12 3/3/12 
f 3/3/12 72/104/12 82/103/12 
f 65/105/13 7/7/13 6/6/13 
f 6/6/13 83/106/13 65/105/13 
f 84/107/14 5/5/14 8/8/14 
f 8/8/14 64/108/14 84/107/14 
f 43/109/15 44/110/15 79/111/15 
f 79/111/15 85/112/15 43/109/15 
f 86/113/16 45/114/16 18/115/16 
f 18/115/16 17/116/16 86/113/16 
f 29/117/17 28/118/17 5/119/17 
f 5/119/17 84/120/17 29/117/17 
f 83/121/18 6/122/18 27/123/18 
f 27/123/18 26/124/18 83/121/18 
f 50/125/19 49/101/19 81/102/19 
f 81/102/19 87/126/19 50/125/19 
f 51/127/20 50/125/20 87/126/20 
f 87/126/20 88/128/20 51/127/20 
f 52/129/21 51/127/21 88/128/21 
f 88/128/21 89/130/21 52/129/21 
f 53/131/22 52/132/22 89/133/22 
f 89/133/22 90/134/22 53/131/22 
f 54/135/23 53/131/23 90/134/23 
f 90/134/23 91/136/23 54/135/23 
f 55/137/24 54/135/24 91/136/24 
f 91/136/24 85/138/24 55/137/24 
f 56/85/25 55/137/25 85/138/25 
f 85/138/25 79/86/25 56/85/25 
f 92/139/26 82/103/26 72/104/26 
f 72/104/26 73/140/26 92/139/26 
f 93/141/27 92/139/27 73/140/27 
f 73/140/27 74/142/27 93/141/27 
f 94/143/28 93/141/28 74/142/28 
f 74/142/28 75/144/28 94/143/28 
f 95/145/29 94/146/29 75/147/29 
f 75/147/29 76/148/29 95/145/29 
f 96/149/30 95/145/30 76/148/30 
f 76/148/30 77/150/30 96/149/30 
f 86/151/31 96/149/31 77/150/31 
f 77/150/31 78/152/31 86/151/31 
f 45/45/32 86/151/32 78/152/32 
f 78/152/32 46/46/32 45/45/32 
f 66/153/33 65/105/33 83/106/33 
f 83/106/33 97/154/33 66/153/33 
f 67/155/34 66/153/34 97/154/34 
f 97/154/34 98/156/34 67/155/34 
f 68/157/35 67/155/35 98/156/35 
f 98/156/35 99/158/35 68/157/35 
f 69/159/36 68/160/36 99/161/36 
f 99/161/36 100/162/36 69/159/36 
f 70/163/37 69/159/37 100/162/37 
f 100/162/37 101/164/37 70/163/37 
f 71/165/38 70/163/38 101/164/38 
f 101/164/38 102/166/38 71/165/38 
f 47/47/39 71/165/39 102/166/39 
f 102/166/39 48/48/39 47/47/39 
f 103/167/40 84/107/40 64/108/40 
f 64/108/40 63/168/40 103/167/40 
f 104/169/41 103/167/41 63/168/41 
f 63/168/41 62/170/41 104/169/41 
f 105/171/42 104/169/42 62/170/42 
f 62/170/42 61/172/42 105/171/42 
f 106/173/43 105/174/43 61/175/43 
f 61/175/43 60/176/43 106/173/43 
f 107/177/44 106/173/44 60/176/44 
f 60/176/44 59/178/44 107/177/44 
f 108/179/45 107/177/45 59/178/45 
f 59/178/45 58/180/45 108/179/45 
f 80/87/46 108/179/46 58/180/46 
f 58/180/46 57/88/46 80/87/46 
f 42/181/47 43/109/47 85/112/47 
f 85/112/47 91/182/47 42/181/47 
f 41/183/48 42/181/48 91/182/48 
f 91/182/48 90/184/48 41/183/48 
f 40/185/49 41/183/49 90/184/49 
f 90/184/49 89/186/49 40/185/49 
f 39/187/50 40/185/50 89/186/50 
f 89/186/50 88/188/50 39/187/50 
f 38/189/51 39/187/51 88/188/51 
f 88/188/51 87/190/51 38/189/51 
f 37/191/52 38/189/52 87/190/52 
f 87/190/52 81/192/52 37/191/52 
f 9/193/53 37/191/53 81/192/53 
f 81/192/53 1/194/53 9/193/53 
f 96/195/54 86/113/54 17/116/54 
f 17/116/54 16/196/54 96/195/54 
f 95/197/55 96/195/55 16/196/55 
f 16/196/55 15/198/55 95/197/55 
f 94/199/56 95/197/56 15/198/56 
f 15/198/56 14/200/56 94/199/56 
f 93/201/57 94/199/57 14/200/57 
f 14/200/57 13/202/57 93/201/57 
f 92/203/58 93/201/58 13/202/58 
f 13/202/58 12/204/58 92/203/58 
f 82/205/59 92/203/59 12/204/59 
f 12/204/59 11/206/59 82/205/59 
f 4/207/60 82/205/60 11/206/60 
f 11/206/60 10/208/60 4/207/60 
f 30/209/61 29/117/61 84/120/61 
f 84/120/61 103/210/61 30/209/61 
f 31/211/62 30/209/62 103/210/62 
f 103/210/62 104/212/62 31/211/62 
f 32/213/63 31/211/63 104/212/63 
f 104/212/63 105/214/63 32/213/63 
f 33/215/64 32/213/64 105/214/64 
f 105/214/64 106/216/64 33/215/64 
f 34/217/65 33/215/65 106/216/65 
f 106/216/65 107/218/65 34/217/65 
f 35/219/66 34/217/66 107/218/66 
f 107/218/66 108/220/66 35/219/66 
f 36/221/67 35/219/67 108/220/67 
f 108/220/68 80/222/68 36/221/68 
f 97/223/69 83/121/69 26/124/69 
f 26/124/69 25/224/69 97/223/69 
f 98/225/70 97/223/70 25/224/70 
f 25/224/70 24/226/70 98/225/70 
f 99/227/71 98/225/71 24/226/71 
f 24/226/71 23/228/71 99/227/71 
f 100/229/72 99/227/72 23/228/72 
f 23/228/72 22/230/72 100/229/72 
f 101/231/73 100/229/73 22/230/73 
f 22/230/73 21/232/73 101/231/73 
f 102/233/74 101/231/74 21/232/74 
f 21/232/74 20/234/74 102/233/74 
f 48/235/75 102/233/75 20/234/75 
f 20/234/75 19/236/75 48/235/75 
# 212 faces

